Project 1: Exploratory Data Analysis
…
1. Tidying: Rearranging Wide/Long (10 pts)

library(tidyverse)
tx_injuries <- readr::read_csv("https://raw.githubusercontent.com/rfordatascience/tidytuesday/master/data/2019/2019-09-10/tx_injuries.csv")
library(readr)
txmedianhouseholdincome <- read.csv("tx median household income.csv")

Both datasets were tidy, so pivot_wider and pivot_longer were not used in this part of the document.

2. Joining/Merging (10 pts)

left_join(tx_injuries, txmedianhouseholdincome)

## # A tibble: 542 x 14
##    injury_report_r… name_of_operati… city  st    injury_date ride_name serial_no
##               <dbl> <chr>            <chr> <chr> <chr>       <chr>     <chr>    
##  1             2032 Skygroup Invest… Aust… TX    2/12/2013   I Fly     SV024    
##  2             1897 Willie G's Post… Galv… TX    3/2/2013    Gulf Gli… GS-11-10…
##  3              837 Great Wolf Lodge Grap… TX    3/3/2013    Howlin T… 0643-C1-…
##  4               99 Six Flags Fiest… San … TX    3/3/2013    Scooby D… n/a      
##  5               55 Ray Cammack Sho… Lave… AZ    3/11/2013   Alien Ab… 862162   
##  6              780 ZDT's Amusement… Segu… TX    3/12/2013   Go Karts  n/a      
##  7              253 Six Flags Over … Arli… TX    3/15/2013   Gold Riv… 01-0511  
##  8              253 Six Flags Over … Arli… TX    3/15/2013   Titan     COCO62   
##  9               55 Ray Cammack Sho… Lave… AZ    3/16/2013   Wild Riv… 97-05-00…
## 10               55 Ray Cammack Sho… Lave… AZ    3/16/2013   Sky Ride… A-878-B  
## # … with 532 more rows, and 7 more variables: gender <chr>, age <chr>,
## #   body_part <chr>, alleged_injury <chr>, cause_of_injury <chr>, other <chr>,
## #   value <fct>
…
joined <- left_join(tx_injuries, txmedianhouseholdincome)
joined2 <- na.omit(joined)
joined2 %>% filter(city == "Austin")

## # A tibble: 2 x 14
##   injury_report_r… name_of_operati… city  st    injury_date ride_name serial_no
##              <dbl> <chr>            <chr> <chr> <chr>       <chr>     <chr>    
## 1              690 Texas Bells and… Aust… TX    43005       Cedar Ro… ADM16GH-…
## 2              690 Texas Bells and… Aust… TX    43005       Cedar Ro… N/A      
## # … with 7 more variables: gender <chr>, age <chr>, body_part <chr>,
## #   alleged_injury <chr>, cause_of_injury <chr>, other <chr>, value <fct>

joined2 %>% arrange(value)

## # A tibble: 76 x 14
##    injury_report_r… name_of_operati… city  st    injury_date ride_name serial_no
##               <dbl> <chr>            <chr> <chr> <chr>       <chr>     <chr>    
##  1             2236 Skygroup Invest… Fris… TX    n/a         iFly Dal… 14R4     
##  2             2236 Skygroup Invest… Fris… TX    42152       iFly Dal… SV02714R4
##  3             2236 Skygroup Invest… Fris… TX    42161       iFly Dal… SKYVENTU…
##  4             2236 Skygroup Invest… Fris… TX    42175       iFly Dal… SKYVENTU…
##  5             1897 Willie G's Post… Galv… TX    3/2/2013    Gulf Gli… GS-11-10…
##  6               99 Six Flags Fiest… San … TX    3/3/2013    Scooby D… n/a      
##  7               99 Six Flags Fiest… San … TX    4/28/2013   Texas Tu… n/a      
##  8               99 Six Flags Fiest… San … TX    4/28/2013   Texas Tu… n/a      
##  9             1457 JW Marriott San… San … TX    7/7/2013    Cibolo F… 0851-C1-…
## 10               63 Zuma Fun Center… Hous… TX    12/8/2013   Go-Karts  6638     
## # … with 66 more rows, and 7 more variables: gender <chr>, age <chr>,
## #   body_part <chr>, alleged_injury <chr>, cause_of_injury <chr>, other <chr>,
## #   value <fct>

joined2 %>% select(contains("a"))

## # A tibble: 76 x 9
##    name_of_operati… injury_date ride_name serial_no age   body_part
##    <chr>            <chr>       <chr>     <chr>     <chr> <chr>    
##  1 Willie G's Post… 3/2/2013    Gulf Gli… GS-11-10… 43    Knee     
##  2 Six Flags Fiest… 3/3/2013    Scooby D… n/a       51    Lower Leg
##  3 Six Flags Fiest… 4/28/2013   Texas Tu… n/a       40    Lower ba…
##  4 Six Flags Fiest… 4/28/2013   Texas Tu… n/a       40    Lower ba…
##  5 Six Flags Over … 5/27/2013   Batman    IC-T99    0     Neck     
##  6 Splashtown - Sp… 6/24/2013   Treehouse n/a       4     Head     
##  7 JW Marriott San… 7/7/2013    Cibolo F… 0851-C1-… 32    Right El…
##  8 Wonderland Amus… 8/11/2013   Shoot th… 21001     n/a   Chest    
##  9 Wonderland Amus… 8/31/2013   Shoot th… 21001     n/a   Ribs     
## 10 Zuma Fun Center… 12/8/2013   Go-Karts  6638      19    Ankle in…
## # … with 66 more rows, and 3 more variables: alleged_injury <chr>,
## #   cause_of_injury <chr>, value <fct>

joined2 %>% mutate(ifelse(value > 60000, "high"))

## # A tibble: 76 x 15
##    injury_report_r… name_of_operati… city  st    injury_date ride_name serial_no
##               <dbl> <chr>            <chr> <chr> <chr>       <chr>     <chr>    
##  1             1897 Willie G's Post… Galv… TX    3/2/2013    Gulf Gli… GS-11-10…
##  2               99 Six Flags Fiest… San … TX    3/3/2013    Scooby D… n/a      
##  3               99 Six Flags Fiest… San … TX    4/28/2013   Texas Tu… n/a      
##  4               99 Six Flags Fiest… San … TX    4/28/2013   Texas Tu… n/a      
##  5              253 Six Flags Over … Arli… TX    5/27/2013   Batman    IC-T99   
##  6              261 Splashtown - Sp… Spri… TX    6/24/2013   Treehouse n/a      
##  7             1457 JW Marriott San… San … TX    7/7/2013    Cibolo F… 0851-C1-…
##  8              305 Wonderland Amus… Amar… TX    8/11/2013   Shoot th… 21001    
##  9              305 Wonderland Amus… Amar… TX    8/31/2013   Shoot th… 21001    
## 10               63 Zuma Fun Center… Hous… TX    12/8/2013   Go-Karts  6638     
## # … with 66 more rows, and 8 more variables: gender <chr>, age <chr>,
## #   body_part <chr>, alleged_injury <chr>, cause_of_injury <chr>, other <chr>,
## #   value <fct>, `ifelse(value > 60000, "high")` <lgl>

joined2 %>% summarize(mean(age, na.rm = T), n(), n_distinct(city))

## # A tibble: 1 x 3
##   `mean(age, na.rm = T)` `n()` `n_distinct(city)`
##                    <dbl> <int>              <int>
## 1                     NA    76                  9

joined2 %>% group_by(ride_name, city) %>% summarize(mean_j = mean(age, 
    na.rm = T), sd_j = sd(age, na.rm = T), n = n(), se_j = sd_j/sqrt(n))

## # A tibble: 47 x 6
## # Groups:   ride_name [47]
##    ride_name           city          mean_j  sd_j     n  se_j
##    <chr>               <chr>          <dbl> <dbl> <int> <dbl>
##  1 Aquaman             Arlington         NA 20.1      3  11.6
##  2 Batman              Arlington         NA 20.0      3  11.6
##  3 Black Knight        New Braunfels     NA  7.07     2   5  
##  4 Boogie Bath         New Braunfels     NA NA        1  NA  
##  5 Cedar Rock Railroad Austin            NA NA        2  NA  
##  6 Cibolo Falls 1      San Antonio       NA NA        1  NA  
##  7 Crazy Legs          Arlington         NA NA        1  NA  
##  8 Cyclone             Amarillo          NA NA        1  NA  
##  9 Der Stuka           Arlington         NA NA        1  NA  
## 10 Double Loop         New Braunfels     NA NA        1  NA  
## # … with 37 more rows
…
